<svg width="30" height="69" xmlns="http://www.w3.org/2000/svg" xmlns:xlink="http://www.w3.org/1999/xlink" viewBox="0 0 30 68.5099">
    <defs/>
    <g transform="translate(1.01,1.03)">
        <path fill="#3498db" id="shape1" transform="translate(8.52,-0.03)" stroke="#3498db" d="M0,5.5C0,2.5,2.5,0,5.5,0C8.5,0,11,2.5,11,5.5C11,8.6,8.5,11.1,5.5,11.1C2.5,11.1,0,8.6,0,5.5z"/>
        <path fill="#3498db" id="shape2" transform="translate(0,12.06)" stroke="#3498db" d="M1.2,34.1L26.9,34.1L18,17.8L18,7.2L24,18.2C24,18.2,23.8,19.4,26,19.4C28.2,19.4,28,17.4,28,17.4C28,17.4,22.8,5.2,20.5,2.7C18.1,.3,15.5,0,15.5,0L12.3,0C12.3,0,10.4,.4,7.6,3.1C4.8,5.7,0,18.5,0,18.5C0,18.5,-0.3,19.5,1.5,20C3.4,20.5,3.9,19,3.9,19L9.2,7L10.1,17.8L1.2,34.1z"/>
        <path fill="#3498db" id="shape3" transform="translate(8.16,46.69)" stroke="#3498db" d="M0,0L3.8,0L3.8,18.7C3.8,18.7,3.8,19.8,1.9,19.8C0,19.8,0,18.7,0,18.7L0,0z"/>
        <path fill="#3498db" id="shape4" transform="translate(16.01,46.69)" stroke="#3498db" d="M0,0L3.8,0L3.8,18.7C3.8,18.7,3.8,19.8,1.9,19.8C0,19.8,0,18.7,0,18.7L0,0z"/>
    </g>
</svg>
